"_links" : {
    "first" : {
      "href" : "http://fleet.cfapps.pez.pivotal.io/locations?page=0&size=20",
      "templated" : false
    },
    "self" : {
      "href" : "http://fleet.cfapps.pez.pivotal.io/locations",
      "templated" : false
    },
    "next" : {
      "href" : "http://fleet.cfapps.pez.pivotal.io/locations?page=1&size=20",
      "templated" : false
    },
    "last" : {
      "href" : "http://fleet.cfapps.pez.pivotal.io/locations?page=360&size=20",
      "templated" : false
    },
    "search" : {
      "href" : "http://fleet.cfapps.pez.pivotal.io/locations/search",
      "templated" : false
    }
  },
  "_embedded" : {
    "locations" : [{"address1":"2151 SE FRONTAGE RD",
"address2":" ",
"city":"STURTEVANT",
"latitude":"42.708494",
"longitude":"-87.953346",
"location":"STURTEVANT",
"state":"WI",
"zip":"53177",
"type":"Service"},
{"address1":"8520 N GEORGETOWN RD",
"address2":" ",
"city":"INDIANAPOLIS",
"latitude":"39.909792",
"longitude":"-86.240824",
"location":"FLEETY INDY PARK",
"state":"IN",
"zip":"46268",
"type":"Service"}]
  },
  "page" : {
    "size" : 20,
    "totalElements" : 7216,
    "totalPages" : 361,
    "number" : 0
  }
}
